2 Bitácora 2: Planificación y Análisis – Análisis de la interacción de los factores sociales, económicos, académicos y familiares en la trayectoria de un estudiante
…
target_parents_qualification

# A tibble: 112 × 4
# Groups:   target, mothers_qualification [23]
   target   mothers_qualification    fathers_qualification    count
   <chr>    <fct>                    <fct>                    <int>
 1 Desertor Secundaria no completado Secundaria no completado   117
 2 Desertor Secundaria no completado Secundaria completada       59
 3 Desertor Secundaria no completado Primaria completada         43
 4 Desertor Secundaria no completado Cursos complementarios       3
 5 Desertor Secundaria no completado Universidad completada      15
 6 Desertor Secundaria no completado Primaria no completado      64
 7 Desertor Secundaria completada    Secundaria no completado    73
 8 Desertor Secundaria completada    Secundaria completada      134
 9 Desertor Secundaria completada    Primaria completada         31
10 Desertor Secundaria completada    Cursos complementarios       6
# ℹ 102 more rows
…
